<svg width="35" height="35" viewBox="0 0 35 35" version="1.1" xmlns="http://www.w3.org/2000/svg" xmlns:xlink="http://www.w3.org/1999/xlink">
<g id="Canvas" fill="none">
<g id="icon 2" clip-path="url(#clip0)">
<g id="Rectangle 4 (Stroke)">
<path fill-rule="evenodd" clip-rule="evenodd" d="M 20 2L 2 2L 2 20L 20 20L 20 2ZM 2 0C 0.895431 0 0 0.895431 0 2L 0 20C 0 21.1046 0.895431 22 2 22L 20 22C 21.1046 22 22 21.1046 22 20L 22 2C 22 0.895431 21.1046 0 20 0L 2 0Z" transform="translate(6.37854 6.98682)" fill="#B32734"/>
</g>
<g id="Vector (Stroke)">
<path fill-rule="evenodd" clip-rule="evenodd" d="M 20.0364 0.188694C 20.774 0.594057 21.0433 1.52057 20.6379 2.25811C 19.6778 4.00505 16.7616 8.71272 14.1211 12.9293C 12.7933 15.0498 11.5241 17.0635 10.5869 18.5471C 10.1183 19.2889 9.73265 19.8983 9.46409 20.3223L 9.04429 20.9845C 8.76969 21.4172 8.29558 21.6835 7.78325 21.6923C 7.27091 21.701 6.78849 21.4517 6.4993 21.0287L 0.266029 11.9111C -0.208949 11.2164 -0.0307816 10.2681 0.663976 9.79315C 1.35873 9.31817 2.30699 9.49634 2.78197 10.1911L 7.70841 17.3971C 7.8046 17.2449 7.90535 17.0855 8.01025 16.9194C 8.94604 15.438 10.213 13.4278 11.538 11.3118C 14.2033 7.05565 17.0597 2.44107 17.967 0.790162C 18.3724 0.0526167 19.2989 -0.21667 20.0364 0.188694Z" transform="translate(9.41815 3.83777)" fill="#B32734"/>
</g>
</g>
</g>
<defs>

<clipPath id="clip0">
<rect width="35" height="35" fill="white"/>
</clipPath>

</defs>
</svg>

