<svg width="221" height="29" viewBox="0 0 221 29" version="1.1" xmlns="http://www.w3.org/2000/svg" xmlns:xlink="http://www.w3.org/1999/xlink">
<title>logo</title>
<desc>Created using Figma</desc>
<g id="Canvas" transform="translate(-3914 -215)">
<rect x="3914" y="215" width="221" height="29" fill="#E5E5E5"/>
<g id="hover">
<g id="Rectangle">
<use xlink:href="#path0_fill" transform="translate(3697 75)" fill="#FFFFFF"/>
</g>
<g id="top">
<g id="Rectangle">
<use xlink:href="#path1_fill" transform="translate(3750 194)" fill="#B32734"/>
</g>
<g id="logo">
<g id="&#208;&#148;&#209;&#128;&#208;&#176;&#208;&#185;&#208;&#178;&#208;&#156;&#208;&#190;&#209;&#130;&#208;&#190;&#209;&#128;&#209;&#129;">
<use xlink:href="#path2_fill" transform="translate(3914.9 222.272)" fill="#FFFFFF"/>
<use xlink:href="#path3_fill" transform="translate(3914.9 222.272)" fill="#FFFFFF"/>
<use xlink:href="#path4_fill" transform="translate(3914.9 222.272)" fill="#FFFFFF"/>
<use xlink:href="#path5_fill" transform="translate(3914.9 222.272)" fill="#FFFFFF"/>
<use xlink:href="#path6_fill" transform="translate(3914.9 222.272)" fill="#FFFFFF"/>
<use xlink:href="#path7_fill" transform="translate(3914.9 222.272)" fill="#FFFFFF"/>
<use xlink:href="#path8_fill" transform="translate(3914.9 222.272)" fill="#FFFFFF"/>
<use xlink:href="#path9_fill" transform="translate(3914.9 222.272)" fill="#FFFFFF"/>
<use xlink:href="#path10_fill" transform="translate(3914.9 222.272)" fill="#FFFFFF"/>
<use xlink:href="#path11_fill" transform="translate(3914.9 222.272)" fill="#FFFFFF"/>
<use xlink:href="#path12_fill" transform="translate(3914.9 222.272)" fill="#FFFFFF"/>
</g>
<g id="&#208;&#190;&#209;&#132;&#208;&#184;&#209;&#134;&#208;&#184;&#208;&#176;&#208;&#187;&#209;&#140;&#208;&#189;&#209;&#139;&#208;&#185;">
<use xlink:href="#path13_fill" transform="translate(4072.35 221.669)" fill="#FFFFFF"/>
<use xlink:href="#path14_fill" transform="translate(4072.35 221.669)" fill="#FFFFFF"/>
<use xlink:href="#path15_fill" transform="translate(4072.35 221.669)" fill="#FFFFFF"/>
<use xlink:href="#path16_fill" transform="translate(4072.35 221.669)" fill="#FFFFFF"/>
<use xlink:href="#path17_fill" transform="translate(4072.35 221.669)" fill="#FFFFFF"/>
<use xlink:href="#path18_fill" transform="translate(4072.35 221.669)" fill="#FFFFFF"/>
<use xlink:href="#path19_fill" transform="translate(4072.35 221.669)" fill="#FFFFFF"/>
<use xlink:href="#path20_fill" transform="translate(4072.35 221.669)" fill="#FFFFFF"/>
<use xlink:href="#path21_fill" transform="translate(4072.35 221.669)" fill="#FFFFFF"/>
<use xlink:href="#path22_fill" transform="translate(4072.35 221.669)" fill="#FFFFFF"/>
<use xlink:href="#path23_fill" transform="translate(4072.35 221.669)" fill="#FFFFFF"/>
</g>
<g id="&#208;&#180;&#208;&#184;&#208;&#187;&#208;&#181;&#209;&#128; NISSAN">
<use xlink:href="#path24_fill" transform="translate(4071.95 231.719)" fill="#FFFFFF"/>
<use xlink:href="#path25_fill" transform="translate(4071.95 231.719)" fill="#FFFFFF"/>
<use xlink:href="#path26_fill" transform="translate(4071.95 231.719)" fill="#FFFFFF"/>
<use xlink:href="#path27_fill" transform="translate(4071.95 231.719)" fill="#FFFFFF"/>
<use xlink:href="#path28_fill" transform="translate(4071.95 231.719)" fill="#FFFFFF"/>
<use xlink:href="#path29_fill" transform="translate(4071.95 231.719)" fill="#FFFFFF"/>
<use xlink:href="#path30_fill" transform="translate(4071.95 231.719)" fill="#FFFFFF"/>
<use xlink:href="#path31_fill" transform="translate(4071.95 231.719)" fill="#FFFFFF"/>
<use xlink:href="#path32_fill" transform="translate(4071.95 231.719)" fill="#FFFFFF"/>
<use xlink:href="#path33_fill" transform="translate(4071.95 231.719)" fill="#FFFFFF"/>
<use xlink:href="#path34_fill" transform="translate(4071.95 231.719)" fill="#FFFFFF"/>
</g>
<g id="Rectangle">
<use xlink:href="#path35_fill" transform="translate(4064.41 223.224)" fill="#FFFFFF"/>
</g>
</g>
</g>
</g>
</g>
<defs>
<path id="path0_fill" d="M 0 0L 2355 0L 2355 1439L 0 1439L 0 0Z"/>
<path id="path1_fill" d="M 0 0L 1440 0L 1440 70L 0 70L 0 0Z"/>
<path id="path2_fill" d="M 13.9402 12.8916L 12.1925 12.8916L 12.1925 1.29533L 3.76262 1.27477C 3.53645 4.48224 3.14579 7.79252 2.79626 9.41682C 2.40561 11.1645 2.03551 12.3776 1.31589 12.8916L 0 12.8916L 0 17.4766L 1.85047 17.4766L 1.85047 14.6598L 12.0692 14.6598L 12.0692 17.4766L 13.9402 17.4766L 13.9402 12.8916ZM 10.2598 12.8916L 3.47477 12.8916C 3.90654 12.2542 4.19439 11.4112 4.46168 10.2804C 4.8729 8.51215 5.26355 6.22991 5.53084 3.06355L 10.2598 3.06355L 10.2598 12.8916Z"/>
<path id="path3_fill" d="M 21.0076 3.88598C 19.3216 3.88598 17.9441 4.54393 17.2039 5.09907L 16.9366 4.11215L 15.5796 4.11215L 15.5796 18.772L 17.4301 18.772L 17.4301 14.043C 18.2936 14.5365 19.4039 14.9065 20.7609 14.9065C 23.5572 14.9065 26.3123 13.015 26.3123 9.2729C 26.3123 5.81869 23.9889 3.88598 21.0076 3.88598ZM 20.5142 13.1794C 19.2394 13.1794 18.1291 12.7271 17.4301 12.2336L 17.4301 6.76449C 18.1291 6.16822 19.2188 5.57196 20.6581 5.57196C 23.1048 5.57196 24.359 7.25794 24.359 9.33458C 24.359 11.4523 23.0637 13.1794 20.5142 13.1794Z"/>
<path id="path4_fill" d="M 33.1097 3.88598C 31.7938 3.88598 30.4163 4.07103 28.977 4.5028L 28.977 6.33271C 30.4985 5.83925 31.5471 5.61308 32.9041 5.61308C 34.6929 5.61308 36.2349 6.00374 36.2349 8.08037L 36.2349 8.6972C 35.2892 8.2243 33.9938 7.95701 32.7602 7.95701C 30.4985 7.95701 28.3191 8.86168 28.3191 11.3907C 28.3191 13.7346 30.2106 14.9065 32.4929 14.9065C 34.1172 14.9065 35.5359 14.3103 36.4406 13.6935L 36.6873 14.6598L 38.0854 14.6598L 38.0854 8.42991C 38.0854 5.05794 36.4406 3.88598 33.1097 3.88598ZM 30.2723 11.3701C 30.2723 9.99252 31.4649 9.49907 32.9864 9.49907C 33.9321 9.49907 35.1863 9.68411 36.2349 10.2393L 36.2349 12.1514C 35.6181 12.5421 34.4256 13.2206 32.8219 13.2206C 31.5677 13.2206 30.2723 12.8093 30.2723 11.3701Z"/>
<path id="path5_fill" d="M 48.7264 0C 48.3974 1.66542 47.246 2.46729 45.6217 2.46729C 43.8535 2.46729 43.0105 1.56262 42.8872 0L 44.6143 0C 44.7582 0.842991 45.2105 1.13084 45.8479 1.13084C 46.6703 1.13084 47.2255 0.82243 47.5133 0L 48.7264 0ZM 42.9694 4.11215L 41.16 4.11215L 41.16 14.6598L 42.7843 14.6598L 48.747 6.45608L 48.747 14.6598L 50.5563 14.6598L 50.5563 4.11215L 48.5414 4.11215L 42.9694 11.8636L 42.9694 4.11215Z"/>
<path id="path6_fill" d="M 53.6491 4.11215L 53.6491 14.6598L 58.4398 14.6598C 61.8323 14.6598 63.1276 13.5701 63.1276 11.5551C 63.1276 10.3832 62.5108 9.60187 60.9482 9.10841L 60.9482 9.08785C 61.9762 8.67664 62.6547 7.7514 62.6547 6.74393C 62.6547 5.18131 61.2977 4.11215 58.6454 4.11215L 53.6491 4.11215ZM 55.4996 5.69533L 58.6248 5.69533C 60.0641 5.69533 60.722 6.14766 60.722 7.03178C 60.722 8.03925 60.1052 8.51215 58.6248 8.51215L 55.4996 8.51215L 55.4996 5.69533ZM 55.4996 9.9514L 58.6248 9.9514C 60.4753 9.9514 61.1949 10.5477 61.1949 11.514C 61.1949 12.5009 60.4753 13.0766 58.6042 13.0766L 55.4996 13.0766L 55.4996 9.9514Z"/>
<path id="path7_fill" d="M 76.7375 1.29533C 75.7917 3.41308 74.7637 5.75701 73.0366 10.0336C 71.7413 6.66168 70.5282 3.76262 69.4179 1.29533L 67.4646 1.29533C 66.8067 3.68037 65.8815 6.53832 64.7712 14.6598L 66.745 14.6598C 67.588 8.53271 68.3282 5.42804 68.6777 4.00935C 68.9861 4.5028 70.3637 7.95701 72.3581 13.2411L 73.7151 13.2411C 74.8665 10.1776 76.1618 6.97009 77.4366 3.90654C 77.7861 5.30467 78.5058 8.40935 79.3487 14.6598L 81.302 14.6598C 80.274 6.45607 79.3282 3.61869 78.6908 1.29533L 76.7375 1.29533Z"/>
<path id="path8_fill" d="M 88.5036 3.88598C 85.5017 3.88598 82.8494 5.77757 82.8494 9.41682C 82.8494 13.0972 85.5017 14.9065 88.483 14.9065C 91.4849 14.9065 94.1578 13.1178 94.1578 9.41682C 94.1578 5.77757 91.5055 3.88598 88.5036 3.88598ZM 88.5036 5.61308C 90.6213 5.61308 92.2251 7.0729 92.2251 9.41682C 92.2251 11.3907 91.0531 13.1589 88.5241 13.1589C 85.954 13.1589 84.7821 11.3907 84.7821 9.41682C 84.7821 7.0729 86.3858 5.61308 88.5036 5.61308Z"/>
<path id="path9_fill" d="M 105.019 5.69533L 105.019 4.11215L 95.0678 4.11215L 95.0678 5.69533L 99.1182 5.69533L 99.1182 14.6598L 100.969 14.6598L 100.969 5.69533L 105.019 5.69533Z"/>
<path id="path10_fill" d="M 111.594 3.88598C 108.592 3.88598 105.94 5.77757 105.94 9.41682C 105.94 13.0972 108.592 14.9065 111.574 14.9065C 114.576 14.9065 117.248 13.1178 117.248 9.41682C 117.248 5.77757 114.596 3.88598 111.594 3.88598ZM 111.594 5.61308C 113.712 5.61308 115.316 7.0729 115.316 9.41682C 115.316 11.3907 114.144 13.1589 111.615 13.1589C 109.045 13.1589 107.873 11.3907 107.873 9.41682C 107.873 7.0729 109.477 5.61308 111.594 5.61308Z"/>
<path id="path11_fill" d="M 125.137 3.88598C 123.451 3.88598 122.073 4.54393 121.333 5.09907L 121.066 4.11215L 119.709 4.11215L 119.709 18.772L 121.559 18.772L 121.559 14.043C 122.423 14.5365 123.533 14.9065 124.89 14.9065C 127.686 14.9065 130.441 13.015 130.441 9.2729C 130.441 5.81869 128.118 3.88598 125.137 3.88598ZM 124.643 13.1794C 123.368 13.1794 122.258 12.7271 121.559 12.2336L 121.559 6.76449C 122.258 6.16822 123.348 5.57196 124.787 5.57196C 127.234 5.57196 128.488 7.25794 128.488 9.33458C 128.488 11.4523 127.193 13.1794 124.643 13.1794Z"/>
<path id="path12_fill" d="M 138.082 3.88598C 134.915 3.88598 132.284 5.88037 132.284 9.39626C 132.284 12.9122 134.936 14.9065 138.123 14.9065C 139.768 14.9065 140.57 14.6804 141.803 14.3103L 141.803 12.4804C 140.467 12.9121 139.829 13.1794 138.287 13.1794C 135.676 13.1794 134.216 11.3701 134.216 9.43738C 134.216 6.84673 136.108 5.61308 138.287 5.61308C 139.274 5.61308 140.158 5.79813 141.639 6.35327L 141.639 4.52336C 140.446 4.09159 139.768 3.88598 138.082 3.88598Z"/>
<path id="path13_fill" d="M 2.45016 1.68393C 1.14935 1.68393 0 2.50361 0 4.08062C 0 5.67545 1.14935 6.4595 2.44125 6.4595C 3.74206 6.4595 4.90031 5.68436 4.90031 4.08062C 4.90031 2.50361 3.75097 1.68393 2.45016 1.68393ZM 2.45016 2.43234C 3.36785 2.43234 4.0628 3.06492 4.0628 4.08062C 4.0628 4.93595 3.55495 5.70218 2.45907 5.70218C 1.34536 5.70218 0.837508 4.93595 0.837508 4.08062C 0.837508 3.06492 1.53246 2.43234 2.45016 2.43234Z"/>
<path id="path14_fill" d="M 9.75294 1.69284C 9.57475 1.69284 9.41438 1.70174 9.27182 1.71956L 9.28964 0.196013L 8.48777 0.196013L 8.48777 1.71065C 8.35413 1.70174 8.19375 1.69284 8.02447 1.69284C 6.78603 1.69284 5.69905 2.45907 5.69905 4.04498C 5.69905 5.72 6.84839 6.4595 8.06902 6.4595C 8.21157 6.4595 8.35413 6.45059 8.48777 6.43277L 8.48777 8.13452L 9.28964 8.13452L 9.28964 6.43277C 9.42328 6.45059 9.56584 6.4595 9.70839 6.4595C 10.929 6.4595 12.0784 5.72 12.0784 4.04498C 12.0784 2.45907 10.9914 1.69284 9.75294 1.69284ZM 6.53656 4.07171C 6.53656 3.12729 7.08005 2.42343 8.10466 2.42343C 8.25612 2.42343 8.38976 2.43234 8.50559 2.44125L 8.50559 5.71109C 8.37195 5.72891 8.22939 5.72891 8.06902 5.72891C 7.20478 5.72891 6.53656 5.13196 6.53656 4.07171ZM 9.70839 5.72891C 9.54802 5.72891 9.39656 5.72 9.254 5.71109L 9.254 2.44125C 9.37874 2.43234 9.51238 2.42343 9.67276 2.42343C 10.6974 2.42343 11.2409 3.12729 11.2409 4.07171C 11.2409 5.13196 10.5726 5.72891 9.70839 5.72891Z"/>
<path id="path15_fill" d="M 13.9286 1.78193L 13.1445 1.78193L 13.1445 6.35259L 13.8484 6.35259L 16.4322 2.79763L 16.4322 6.35259L 17.2162 6.35259L 17.2162 1.78193L 16.3431 1.78193L 13.9286 5.14087L 13.9286 1.78193Z"/>
<path id="path16_fill" d="M 23.4033 5.66654L 22.6727 5.66654L 22.6727 1.78193L 21.8708 1.78193L 21.8708 5.66654L 19.3583 5.66654L 19.3583 1.78193L 18.5564 1.78193L 18.5564 6.35259L 22.6549 6.35259L 22.6549 7.57321L 23.4033 7.57321L 23.4033 5.66654Z"/>
<path id="path17_fill" d="M 24.9003 1.78193L 24.1163 1.78193L 24.1163 6.35259L 24.8201 6.35259L 27.4039 2.79763L 27.4039 6.35259L 28.188 6.35259L 28.188 1.78193L 27.3148 1.78193L 24.9003 5.14087L 24.9003 1.78193Z"/>
<path id="path18_fill" d="M 31.4081 1.68393C 30.8379 1.68393 30.241 1.76411 29.6173 1.95122L 29.6173 2.74417C 30.2766 2.53034 30.731 2.43234 31.319 2.43234C 32.0942 2.43234 32.7624 2.60162 32.7624 3.5015L 32.7624 3.76878C 32.3526 3.56386 31.7913 3.44804 31.2567 3.44804C 30.2766 3.44804 29.3322 3.84006 29.3322 4.93595C 29.3322 5.95165 30.1519 6.4595 31.1409 6.4595C 31.8447 6.4595 32.4595 6.20112 32.8515 5.93383L 32.9584 6.35259L 33.5643 6.35259L 33.5643 3.65296C 33.5643 2.19178 32.8515 1.68393 31.4081 1.68393ZM 30.1786 4.92704C 30.1786 4.33009 30.6954 4.11626 31.3547 4.11626C 31.7645 4.11626 32.308 4.19645 32.7624 4.43701L 32.7624 5.26561C 32.4951 5.43489 31.9784 5.72891 31.2834 5.72891C 30.7399 5.72891 30.1786 5.55072 30.1786 4.92704Z"/>
<path id="path19_fill" d="M 38.4338 1.78193L 38.4338 6.35259L 37.6319 6.35259L 37.6319 2.46798L 36.1083 2.46798C 35.8143 5.6309 35.3777 6.4595 34.362 6.4595C 34.3086 6.4595 34.2373 6.4595 34.1482 6.45059L 34.1393 5.76455C 34.2017 5.77346 34.2284 5.77346 34.2729 5.77346C 34.861 5.77346 35.1283 4.75776 35.3688 1.78193L 38.4338 1.78193Z"/>
<path id="path20_fill" d="M 42.0232 3.20748C 41.453 3.20748 40.963 3.36785 40.571 3.54604L 40.571 1.78193L 39.7691 1.78193L 39.7691 6.29913C 40.6601 6.42386 41.2659 6.4595 41.7738 6.4595C 43.3151 6.4595 43.9744 5.9071 43.9744 4.77558C 43.9744 3.76879 43.2617 3.20748 42.0232 3.20748ZM 41.7827 5.73782C 41.3283 5.73782 41.0343 5.70218 40.571 5.62199L 40.571 4.29445C 40.963 4.08953 41.4619 3.95589 41.943 3.95589C 42.7271 3.95589 43.1369 4.24991 43.1369 4.80231C 43.1369 5.39925 42.7895 5.73782 41.7827 5.73782Z"/>
<path id="path21_fill" d="M 48.1376 6.35259L 48.9395 6.35259L 48.9395 1.78193L 48.1376 1.78193L 48.1376 3.6886L 45.6696 3.6886L 45.6696 1.78193L 44.8678 1.78193L 44.8678 6.35259L 45.6696 6.35259L 45.6696 4.37464L 48.1376 4.37464L 48.1376 6.35259Z"/>
<path id="path22_fill" d="M 52.5071 3.20748C 51.9636 3.20748 51.4736 3.36785 51.0816 3.54604L 51.0816 1.78193L 50.2797 1.78193L 50.2797 6.29913C 51.1707 6.42386 51.7765 6.4595 52.2576 6.4595C 53.7366 6.4595 54.396 5.88037 54.396 4.77558C 54.396 3.76879 53.6832 3.20748 52.5071 3.20748ZM 56.0799 6.35259L 56.0799 1.78193L 55.278 1.78193L 55.278 6.35259L 56.0799 6.35259ZM 52.2666 5.73782C 51.8389 5.73782 51.5449 5.70218 51.0816 5.62199L 51.0816 4.29445C 51.4736 4.08953 51.9725 3.95589 52.4269 3.95589C 53.1486 3.95589 53.5585 4.24991 53.5585 4.80231C 53.5585 5.39925 53.211 5.73782 52.2666 5.73782Z"/>
<path id="path23_fill" d="M 60.6931 0C 60.5506 0.721682 60.0516 1.06916 59.3478 1.06916C 58.5816 1.06916 58.2163 0.677134 58.1628 0L 58.9112 0C 58.9736 0.365296 59.1696 0.490031 59.4458 0.490031C 59.8022 0.490031 60.0427 0.356386 60.1675 0L 60.6931 0ZM 58.1984 1.78193L 57.4144 1.78193L 57.4144 6.35259L 58.1182 6.35259L 60.7021 2.79763L 60.7021 6.35259L 61.4861 6.35259L 61.4861 1.78193L 60.613 1.78193L 58.1984 5.14087L 58.1984 1.78193Z"/>
<path id="path24_fill" d="M 5.22106 5.21215L 4.49047 5.21215L 4.49047 1.33645L 1.35427 1.32754C 1.15826 3.75988 0.944424 4.88249 0.552399 5.21215L 0 5.21215L 0 7.11882L 0.748411 7.11882L 0.748411 5.89819L 4.47265 5.89819L 4.47265 7.11882L 5.22106 7.11882L 5.22106 5.21215ZM 3.6886 5.21215L 1.42555 5.21215C 1.7552 4.67757 1.9334 3.75097 2.09377 2.02249L 3.6886 2.02249L 3.6886 5.21215Z"/>
<path id="path25_fill" d="M 6.71628 1.32754L 5.93223 1.32754L 5.93223 5.89819L 6.63609 5.89819L 9.21989 2.34324L 9.21989 5.89819L 10.0039 5.89819L 10.0039 1.32754L 9.1308 1.32754L 6.71628 4.68648L 6.71628 1.32754Z"/>
<path id="path26_fill" d="M 14.8813 1.32754L 14.8813 5.89819L 14.0794 5.89819L 14.0794 2.01358L 12.5559 2.01358C 12.2618 5.17651 11.8253 6.00511 10.8096 6.00511C 10.7561 6.00511 10.6848 6.00511 10.5957 5.9962L 10.5868 5.31016C 10.6492 5.31907 10.6759 5.31907 10.7205 5.31907C 11.3085 5.31907 11.5758 4.30336 11.8164 1.32754L 14.8813 1.32754Z"/>
<path id="path27_fill" d="M 20.3329 3.91134L 20.3329 3.43913C 20.3329 2.05813 19.5667 1.22953 18.3104 1.22953C 17.0987 1.22953 15.9493 1.90667 15.9493 3.64405C 15.9493 5.32798 17.1343 6.00511 18.3995 6.00511C 19.0855 6.00511 19.8161 5.84474 20.2438 5.69327L 20.2438 4.91813C 19.4508 5.15869 19.0944 5.2567 18.4351 5.2567C 17.8471 5.2567 16.8581 5.11414 16.7512 3.91134L 20.3329 3.91134ZM 16.7868 3.2253C 16.867 2.36106 17.562 1.97794 18.2926 1.97794C 19.1212 1.97794 19.4865 2.53925 19.5132 3.2253L 16.7868 3.2253Z"/>
<path id="path28_fill" d="M 23.7719 1.22953C 23.0413 1.22953 22.4443 1.51464 22.1236 1.7552L 22.0078 1.32754L 21.4197 1.32754L 21.4197 7.68012L 22.2216 7.68012L 22.2216 5.6309C 22.5958 5.84473 23.0769 6.00511 23.665 6.00511C 24.8767 6.00511 26.0706 5.18542 26.0706 3.56386C 26.0706 2.06704 25.0638 1.22953 23.7719 1.22953ZM 23.558 5.2567C 23.0056 5.2567 22.5245 5.06069 22.2216 4.84685L 22.2216 2.47688C 22.5245 2.2185 22.9967 1.96012 23.6204 1.96012C 24.6807 1.96012 25.2241 2.69072 25.2241 3.59059C 25.2241 4.50829 24.6628 5.2567 23.558 5.2567Z"/>
<path id="path29_fill" d="M 34.4597 5.89819L 34.4597 0.106916L 33.6311 0.106916L 33.6311 4.43701L 30.3791 0.106916L 29.4168 0.106916L 29.4168 5.89819L 30.2454 5.89819L 30.2454 1.22953L 33.7558 5.89819L 34.4597 5.89819Z"/>
<path id="path30_fill" d="M 36.8973 5.89819L 36.8973 0.106916L 36.0598 0.106916L 36.0598 5.89819L 36.8973 5.89819Z"/>
<path id="path31_fill" d="M 40.6385 0C 39.3466 0 38.2685 0.454393 38.2685 1.58592C 38.2685 2.51252 38.9011 2.93128 39.6406 3.12729L 41.0038 3.5015C 41.5027 3.63514 41.868 3.8757 41.868 4.34791C 41.868 4.8914 41.2443 5.23888 40.2732 5.23888C 39.507 5.23888 38.8655 4.98941 38.1883 4.76667L 38.1883 5.61308C 38.8565 5.86255 39.5159 6.00511 40.2732 6.00511C 41.8324 6.00511 42.7323 5.39925 42.7323 4.32118C 42.7323 3.43913 42.1442 3.00255 41.4314 2.80654L 39.9613 2.38779C 39.4802 2.25414 39.1149 2.01358 39.1149 1.58592C 39.1149 0.944424 39.8812 0.757321 40.6385 0.757321C 41.2354 0.757321 41.7344 0.873146 42.4828 1.1048L 42.4828 0.302928C 41.9393 0.124735 41.3602 0 40.6385 0Z"/>
<path id="path32_fill" d="M 46.2112 0C 44.9193 0 43.8412 0.454393 43.8412 1.58592C 43.8412 2.51252 44.4738 2.93128 45.2133 3.12729L 46.5765 3.5015C 47.0754 3.63514 47.4407 3.8757 47.4407 4.34791C 47.4407 4.8914 46.817 5.23888 45.8459 5.23888C 45.0797 5.23888 44.4382 4.98941 43.761 4.76667L 43.761 5.61308C 44.4293 5.86255 45.0886 6.00511 45.8459 6.00511C 47.4051 6.00511 48.305 5.39925 48.305 4.32118C 48.305 3.43913 47.7169 3.00255 47.0042 2.80654L 45.5341 2.38779C 45.0529 2.25414 44.6876 2.01358 44.6876 1.58592C 44.6876 0.944424 45.4539 0.757321 46.2112 0.757321C 46.8081 0.757321 47.3071 0.873146 48.0555 1.1048L 48.0555 0.302928C 47.512 0.124735 46.9329 0 46.2112 0Z"/>
<path id="path33_fill" d="M 54.8236 5.89819C 53.7989 2.80654 52.5605 0.490031 52.3199 0.106916L 51.331 0.106916C 50.9479 0.730592 49.7005 3.25202 48.8274 5.89819L 49.7272 5.89819C 49.8431 5.51508 50.0302 4.98941 50.2618 4.40137L 53.4158 4.40137C 53.6297 4.95377 53.8079 5.47053 53.9504 5.89819L 54.8236 5.89819ZM 50.5647 3.65296C 50.9835 2.62835 51.4735 1.55028 51.8388 0.864237C 52.2398 1.57701 52.712 2.62835 53.1218 3.65296L 50.5647 3.65296Z"/>
<path id="path34_fill" d="M 60.7136 5.89819L 60.7136 0.106916L 59.885 0.106916L 59.885 4.43701L 56.633 0.106916L 55.6707 0.106916L 55.6707 5.89819L 56.4993 5.89819L 56.4993 1.22953L 60.0097 5.89819L 60.7136 5.89819Z"/>
<path id="path35_fill" d="M 0 0L 0.685361 0L 0.685361 15.0779L 0 15.0779L 0 0Z"/>
</defs>
</svg>
