<svg width="17" height="30" viewBox="0 0 17 30" version="1.1" xmlns="http://www.w3.org/2000/svg" xmlns:xlink="http://www.w3.org/1999/xlink">
<title>Union</title>
<desc>Created using Figma</desc>
<g id="Canvas" transform="translate(-4514 -410)">
<g id="Union">
<use xlink:href="#path0_fill" transform="matrix(6.12323e-17 1 -1 6.12323e-17 4531 410)" fill="#9E1623"/>
</g>
</g>
<defs>
<path id="path0_fill" fill-rule="evenodd" d="M 3.75027 0.000488281L 0 3.40039L 11.2487 13.5996L 15.0011 17L 18.7513 13.6001L 30 3.3999L 26.2497 0L 14.9997 10.1992L 3.75027 0.000488281Z"/>
</defs>
</svg>
